{
     "message": "Livret d'épargne populaire",
     "notifId": "lep-21453123123",
     "soundEnabled": true,
     "badgeNumber": 1,
     "userData": {
         "type": "lep",
         "title": "Synthèse de votre demande : ",
         "Offre": "Livret d'épargne populaire",
         "Montant du versement initial": "30 EUR"
     },
     "target": "show-room-group-1-mobile-1",
     "source": "show-room-group-1-desktop-1",
     "contentBody": "Souscription de votre Livret d'épargne populaire",
     "contentTitle": "Livret d'épargne populaire",
     "date": "2017-04-19T11:53:35.750Z",
     "created_at": "2017-04-19T11:53:35.750Z"
 }