{
    "type":"localNotification",
    "data": {
        "notification": {
            "message": "Alerting notification",
            "notifId": "alerting-21453123123",
            "soundEnabled": true,
            "badgeNumber": 1,
            "userData": {
                "moveToBackground": false,
                "redirectTo": "alerting"
            },
            "contentBody": "Votre offre d'assurance est prête, signez-la en ligne !",
            "contentTitle": "Assurance",
            "date": "2017-04-19T11:53:35.750Z",
            "created_at": "2017-04-19T11:53:35.750Z",
            "foreground": true
        }
    },
  "target": "show-room-group-1-mobile-1",
  "source": "show-room-group-1-desktop-1"
}